
SQL*Plus: Release 12.1.0.2.0 Production on Thu Oct 19 05:51:29 2017

Copyright (c) 1982, 2014, Oracle.  All rights reserved.

Last Successful login time: Thu Oct 19 2017 05:44:25 -02:00

Connected to:
Oracle Database 12c Enterprise Edition Release 12.1.0.2.0 - 64bit Production
With the Partitioning, OLAP, Advanced Analytics and Real Application Testing options

SQL> 		     SELECT distinct eid
  2  		     FROM Empresas esGlobal
  3  		     WHERE NOT EXISTS
  4  		     (
  5  			 SELECT descricao_textual FROM Licitacoes l
  6  			 WHERE lid = '118' AND lote = 'LOTE7' AND NOT EXISTS
  7  			 (
  8  			     SELECT * FROM Empresas esLocal
  9  			     WHERE esLocal.eid = esGlobal.eid
 10  			     AND similarityTree(esLocal.descricao_textual, l.descricao_textual,'ontologia.txt', 2) = 1
 11  			 )
 12  		     );

EID
--------------------------------------------------------------------------------
Bauducco
Concorde
Portela
Dequech

SQL> 		     EXIT;
Disconnected from Oracle Database 12c Enterprise Edition Release 12.1.0.2.0 - 64bit Production
With the Partitioning, OLAP, Advanced Analytics and Real Application Testing options
